modulo_5/memoria_trace.vcd
$date
     Nov 24, 2025       12:15:26
$end

$version
 SystemC 3.0.2-Accellera --- Oct 31 2025 16:51:39
$end

$timescale
     1 ps
$end

$scope module SystemC $end
$var wire    1  aaaaa  clk       $end
$var wire    1  aaaab  enable       $end
$var wire    1  aaaac  write       $end
$var wire    8  aaaad  address [7:0]  $end
$var wire    8  aaaae  data_in [7:0]  $end
$var wire    8  aaaaf  data_out [7:0]  $end
$upscope $end
$enddefinitions  $end

$comment
All initial values are dumped below at time 0 sec = 0 timescale units.
$end

$dumpvars
1aaaaa
0aaaab
0aaaac
b0 aaaad
b0 aaaae
b0 aaaaf
$end

#5000
0aaaaa

#10000
1aaaaa
1aaaab
1aaaac
b10000 aaaad
b10101010 aaaae

#15000
0aaaaa

#20000
1aaaaa
b100000 aaaad
b1010101 aaaae

#25000
0aaaaa

#30000
1aaaaa
b110000 aaaad
b11111111 aaaae

#35000
0aaaaa

#40000
1aaaaa
0aaaac
b10000 aaaad
b10101010 aaaaf

#45000
0aaaaa

#50000
1aaaaa
b100000 aaaad
b1010101 aaaaf

#55000
0aaaaa

#60000
1aaaaa
b110000 aaaad
b11111111 aaaaf

#65000
0aaaaa

#70000
1aaaaa
1aaaac
b1000000 aaaad
b10011001 aaaae

#75000
0aaaaa

#80000
1aaaaa
0aaaac
b10011001 aaaaf

#85000
0aaaaa

#90000
1aaaaa
b10000 aaaad
b10101010 aaaaf

